<?xml version="1.0" encoding="UTF-8"?>
<testng-results skipped="0" failed="0" total="2" passed="2">
  <reporter-output>
  </reporter-output>
  <suite name="Suite" duration-ms="33546" started-at="2019-04-22T19:58:42Z" finished-at="2019-04-22T19:59:16Z">
    <groups>
    </groups>
    <test name="Test" duration-ms="33546" started-at="2019-04-22T19:58:42Z" finished-at="2019-04-22T19:59:16Z">
      <class name="com.pro.app.First_Test">
        <test-method status="PASS" signature="Fist_Test()[pri:0, instance:com.pro.app.First_Test@4cb2c100]" name="Fist_Test" duration-ms="0" started-at="2019-04-22T19:59:16Z" finished-at="2019-04-22T19:59:16Z">
        </test-method> <!-- Fist_Test -->
      </class> <!-- com.pro.app.First_Test -->
      <class name="com.pro.app.FirstPro">
        <test-method status="PASS" signature="scribd(java.lang.String, java.lang.String)[pri:0, instance:com.pro.app.FirstPro@6fb554cc]" name="scribd" duration-ms="33397" started-at="2019-04-22T19:58:42Z" finished-at="2019-04-22T19:59:16Z">
          <params>
            <param index="0">
              <value>
                <![CDATA[wronguser@gmail.com]]>
              </value>
            </param>
            <param index="1">
              <value>
                <![CDATA[wrongpassword]]>
              </value>
            </param>
          </params>
        </test-method> <!-- scribd -->
        <test-method status="PASS" signature="teardowne()[pri:0, instance:com.pro.app.FirstPro@6fb554cc]" name="teardowne" is-config="true" duration-ms="131" started-at="2019-04-22T19:59:16Z" finished-at="2019-04-22T19:59:16Z">
        </test-method> <!-- teardowne -->
      </class> <!-- com.pro.app.FirstPro -->
    </test> <!-- Test -->
  </suite> <!-- Suite -->
</testng-results>
